{
  "type": "object",
  "$schema": "http://json-schema.org/draft-04/schema",
  "title": "Vendor",
  "description": "A single vendor",
  "properties": {
    "id": {
      "type": "string",
      "title": "id"
    },
    "vendor": {
      "type": "object",
      "$ref": "vendor.json",
      "title": "vendor"
    },
    "identifier": {
      "type": "string",
      "title": "identifier"
    },
    "startDate": {
      "type": "string",
      "title": "startDate"
    },
    "endDate": {
      "type": "string",
      "title": "endDate"
    },
    "description": {
      "type": "string",
      "title": "description"
    },
    "terms": {
      "type": "string",
      "title": "terms"
    },
    "coverage": {
      "type": "string",
      "title": "coverage"
    },
    "date": {
      "type": "string",
      "title": "date"
    },
    "serviceTypes": {
      "type": "array",
      "items": {
        "type": "object",
        "$ref": "serviceType.json"
      }
    },
    "equipments": {
      "type": "array",
      "items": {
        "type": "object",
        "$ref": "equipment.json"
      }
    },
    "facilities": {
      "type": "array",
      "items": {
        "type": "string"
      }
    }
  },
  "required": [
    "vendor",
    "identifier",
    "startDate",
    "endDate",
    "terms",
    "description",
    "coverage",
    "date",
    "serviceTypes",
    "equipments",
    "facilities"
  ]
}
