{
  "type": "object",
  "$schema": "http://json-schema.org/draft-04/schema",
  "title": "Maintenance Request Reason",
  "description": "A single maintenance request reason",
  "properties": {
    "id": {
      "type": "string",
      "title": "id"
    },
    "inventory": {
      "type": "object",
      "$ref": "equipmentInventory.json",
      "title": "inventory"
    },
    "vendor": {
      "type": "object",
      "$ref": "vendor.json",
      "title": "vendor"
    },
    "requestDate": {
      "type": [
        "string",
        "null"
      ],
      "title": "requestDate"
    },
    "recommendedDate": {
      "type": [
        "string",
        "null"
      ],
      "title": "recommendedDate"
    },
    "comment": {
      "type":
        "string",
      "title": "comment"
    },

    "resolved": {
      "type":
        "boolean",
      "title": "resolved"
    },
    "vendorComment": {
      "type": "string",
      "title": "vendorComment"
    },
    "breakDownDate": {
      "type": [
        "string",
        "null"
      ],
      "title": "breakDownDate"
    },
    "reason": {
      "type": "object",
      "$ref": "equipmentMaintenanceRequestReason.json",
      "title": "reason"
    }
  },
  "required": [
    "inventory",
    "vendor",
    "requestDate",
    "recommendedDate",
    "comment",
    "resolved",
    "vendorComment",
    "breakDownDate",
    "reason"
  ]
}
