{
  "type": "object",
  "$schema": "http://json-schema.org/draft-04/schema",
  "title": "Maintenance Request Reason",
  "description": "A single maintenance request reason",
  "properties": {
    "id": {
      "type": "string",
      "title": "id"
    },
    "request": {
      "type": "object",
      "$ref": "equipmentMaintenanceRequest.json",
      "title": "request"
    },
    "maintenanceDate": {
      "type": [
        "string",
        "null"
      ],
      "title": "maintenanceDate"
    },
    "servicePerformed": {
      "type":
        "string",
      "title": "servicePerformed"
    },
    "finding": {
      "type":
        "string",
      "title": "finding"
    },
    "recommendation": {
      "type": "string",
      "title": "recommendation"
    },
    "nextVisitDate": {
      "type": [
        "string",
        "null"
      ],
      "title": "nextVisitDate"
    },
    "approved": {
      "type": "object",
      "title": "approved"
    }
  },
  "required": [
    "id",
    "request",
    "maintenanceDate",
    "servicePerformed",
    "finding",
    "recommendation",
    "nextVisitDate"
  ]
}
